INDEX VERSION 1.130+C:\Users\tharu\OneDrive\Desktop\FullStackJava\Module-4\SpringBoot\WorkSpace2\Product\.metadata\.plugins\org.eclipse.jdt.core
1665888744.index
451444765.index
710174573.index
1529147641.index
4206558176.index
3617628372.index
902822473.index
776304153.index
3080323791.index
52414785.index
13839403.index
22069307.index
4106118341.index
3148784221.index
688482324.index
3644761064.index
2823274696.index
1049962110.index
1946725198.index
3367546234.index
1670725720.index
4138326577.index
2392185901.index
2151144372.index
2625993860.index
4135958314.index
2732748448.index
4124310640.index
316774506.index
686581679.index
786192391.index
3165456487.index
2410986300.index
4137509532.index
1871148287.index
674573568.index
435648566.index
1975873713.index
1461564774.index
2265346955.index
4259073463.index
4105362184.index
1721065562.index
4075422233.index
3348520720.index
1929046623.index
1518670322.index
2155332803.index
805206703.index
3950160193.index
338366290.index
2390279968.index
2205283528.index
3307921200.index
3745763163.index
426721206.index
3999193302.index
1429420154.index
2868415874.index
2885606711.index
1337277026.index
3861961647.index
2507423472.index
443019082.index
3701341616.index
1773930943.index
2822835307.index
1654903213.index
895354549.index
2882090647.index
1022589061.index
1880496820.index
3557814546.index
2142431107.index
3350597127.index
751255948.index
3502471632.index
1489251915.index
2871951157.index
4107756055.index
1910030128.index
2002482050.index
3056344700.index
2407484953.index
3271335675.index
3387354711.index
1483691554.index
1919283415.index
4194525064.index
2066830214.index
3040837599.index
103378668.index
1537826257.index
542153213.index
1961815414.index
902101153.index
2569201518.index
3315654891.index
1664378545.index
411227453.index
3932319006.index
3998100805.index
1956904976.index
