INDEX VERSION 1.3+C:\Users\tharu\OneDrive\Desktop\M3\AdvJava\Workspace\.metadata\.plugins\org.eclipse.wst.jsdt.core\indexes
3515108961.index
632139054.index
2508458480.index
2907018221.index
242176372.index
503371672.index
