INDEX VERSION 1.130+C:\Users\tharu\OneDrive\Desktop\M3\AdvJava\Workspace\.metadata\.plugins\org.eclipse.jdt.core
2708248534.index
790761456.index
1188986013.index
4135958314.index
599187441.index
895354549.index
4138326577.index
1946725198.index
674573568.index
1673551155.index
2244610550.index
246869295.index
1961815414.index
537117823.index
3348520720.index
4090650680.index
3631025823.index
1345485591.index
4259073463.index
103378668.index
1551429276.index
3125140864.index
3040837599.index
2425816539.index
2205283528.index
1333485826.index
1243275745.index
1956904976.index
3683198562.index
1860587622.index
3020875557.index
3949116009.index
896391742.index
242176372.index
542153213.index
2507423472.index
4058954495.index
4125799741.index
4132379892.index
1084290585.index
3573611026.index
1534641027.index
2885606711.index
2066830214.index
3644761064.index
3378583996.index
652419219.index
411227453.index
